{
	"package"		: "OAuth2",
	"category"		: "modules",
	"version"		: "0.044.0+build-49",
	"description"	: "Module provides realization of OAuth 2 authorization protocol (server side).",
	"author"		: "Nazar Mokrynskyi",
	"website"		: "cleverstyle.org/cms",
	"license"		: "MIT License",
	"db_support"	: [
		"MySQLi"
	],
	"provide"		: "oauth2",
	"require"		: "System=>0.600",
	"multilingual"	: [
		"interface"
	],
	"languages"		: [
		"English",
		"Русский",
		"Українська"
	]
}
