{
	"package"				: "System",
	"category"				: "modules",
	"version"				: "1.0.1+build-750",
	"description"			: "Base system module of CleverStyle CMS",
	"author"				: "Nazar Mokrynskyi",
	"website"				: "cleverstyle.org/cms",
	"license"				: "MIT License",
	"update_from_version"	: "0.596",
	"db_support"			: [
		"MySQLi"
	],
	"provide"				: "system",
	"optional"				: [
		"simple_editor"
	],
	"multilingual"			: [
		"interface",
		"content"
	],
	"languages"				: [
		"English",
		"Русский",
		"Українська"
	]
}
